{
  "contactnumberr": 0, 
  "pm1reply": 0, 
  "openxyz": 0, 
  "hpoints": 0, 
  "contactnumberx": 0, 
  "yspy": 0, 
  "firstboot": 1, 
  "call1": 0, 
  "contactnumberu": 0, 
  "x2ppoints": 0, 
  "unseensh": 0, 
  "adventure2": 0, 
  "quiz": 0, 
  "points": 0, 
  "xkernel2": 0, 
  "update1": 0, 
  "pm": 0, 
  "username": "PixelHarmony2", 
  "hunter": 0, 
  "xglobe": 0, 
  "adventure": 0, 
  "name1": 0, 
  "privatetalk": 0, 
  "password": "hunter2", 
  "name": "", 
  "edit": 0, 
  "xstorage": 0, 
  "newpm": 0, 
  "contact": 0, 
  "all2": 0, 
  "login": 0
}